ID,Name,Latitude,Longitude,Street,City,State,ZIP,Phone,Website,Email Public,Contact Internal,Email Internal,Phone Internal,Comment Internal,Categories,Looped Rooms,Comment Public,Venue Type
3325,Temple Beth Torah,34.287547,-119.194098,7620 Foothill Road,Ventura,CA,93004,805-647-4181,http://www.templebethtorah.com,TBTVentura@templebethtorah.com,Morton Mayer,mortonmayer@gmail.com,805-647-4181,,3,Sanctuary,,1
3456,Camarillo Church Of Christ,34.221573,-119.030073,515 Temple Avenue,Camarillo,CA,93010,805-482-3505,http://www.camarillochurchofchrist.com,alan@camarillochurchofchrist.com,Mark Malloy,admin@camarillochurchofchrist.com,805-388-3824,,3,Sanctuary,,1
3457,Temple Ner Ami,34.221573,-119.030073,515 Temple Avenue,Camarillo,CA,93010,805-388-3824,http://www.templenerami.org,info@templenerami.org,Mark Malloy,admin@camarillochurchofchrist.com,805-388-3824,,3,Sanctuary,,1
2761,Carpinteria Smiles,34.398701,-119.517014,1066 Eugenia Place,Carpinteria,CA,93013,805-684-2171,http://www.carpinteriasmiles.com,CarpDDS@aol.com,,,,,6,Front Desk,,1
3328,Carpinteria Library,34.3976308,-119.5168557,5141 Carpinteria Avenue,Carpinteria,CA,93013,805-684-4314,http://www.santabarbaraca.gov/gov/depts/lib/locations/carpinteria.asp,CarpinteriaLibrary@SantaBarbaraCA.gov,Kris McGuire,mcguiremarketing@aol.com,805-252-2395,,10,Community Room,,1
3455,Ojai Presbyterian Church,34.4494312,-119.2533314,304 North Foothill Road ,Ojai,CA,93023,805-646-1437,http://www.ojaipc.org,jeff@ojaipc.org,Jeff Holland,jeff@ojaipc.org,805-646-1437 x13,,3,Sanctuary,,1
2441,Ojai Playhouse,34.447498,-119.246109,145 East Ojai Avenue,Ojai,CA,93023,805-646-1011,http://www.ojaiplayhouse.com,,Khaled Al-Awar,khalawar@gmail.com,805-646-7133,,"7,11",,,2
2863,Soule Park Golf Course,34.448486,-119.23407,1033 East Ojai Avenue,Ojai,CA,93023,805-646-5633,http://www.soulepark.com,soulepark@att.net,,,,,12,Banquet Room,,1
3327,St. Andrew's Episcopal Church,34.44543,-119.251349,409 Topa Topa Drive,Ojai,CA,93023,805-646-1885,http://www.standrewsojai.ladiocese.org,standrews.office@sbcglobal.net,Jeff Wilhelm,jrev58@yahoo.com,805-646-1885,,3,Sanctuary,,1
1833,Simi Valley Senior Center,34.289833,-118.720268,3900 Avenida Simi,Simi Valley,CA,93063,805-583-6364,http://www.simivalley.org/index.aspx?page=742,,Laurie Dickinson,ldickinson@simivalley.org,805-583-6366,,13,Multipurpose Room,,1
3463,New Vic Theatre,34.423394,-119.7063616,33 West Victoria Street,Santa Barbara,CA,93101,805-965-5400,http://www.ensembletheatre.com,boxoffice@etcsb.org,Alex Berger,aberger@etcsb.org,805-965-5400 x102,,7,,,2
3462,Lobero Theatre,34.4217153,-119.6999758,33 East Canon Perdido Street,Santa Barbara,CA,93101,805-966-4946,http://www.lobero.com,housemanager@lobero.com,Daniel Ramirez,dramirez@lobero.com,805-679-6006,,7,,,2
3458,Santa Barbara City Hall,34.4202488,-119.697645,735 Anacapa Street,Santa Barbara,CA,93101,805-963-0611,http://www.santabarbaraca.gov,,Tony Ruggieri,truggieri@santabarbaraca.gov,805-564-5311,,14,Council Chambers,,1
2762,University Club of Santa Barbara,34.427338,-119.704048,1332 Santa Barbara Street,Santa Barbara,CA,93101,805-966-0853,http://www.uclubsb.org,memberservices@uclubsb.org,Luis Chavez,luis@uclubsb.org,,,15,Dining Room,,1
3459,David Gebhard Public Meeting Room,34.4216258,-119.6939172,630 Garden Street,Santa Barbara,CA,93101,805-963-0611,http://www.santabarbaraca.gov,,Tony Ruggieri,truggieri@santabarbaraca.gov,805-564-5311,,14,,,2
3303,Jewish Federation of Greater Santa Barbara,34.416611,-119.697166,524 Chapala Street,Santa Barbara,CA,93103,805-957-1115,http://www.jewishsantabarbara.org,info@sbjf.org,Mike Witt,mwitt@sbjf.org,805-957-1115 x113  ,,"3,15",Community Room,,1
3579,Santa Barbara Zoo,34.41951,-119.6680176,500 Ninos Drive,Santa Barbara,CA,93103,805-962-5339,http://www.sbzoo.org,zooinfo@sbzoo.org,,,,,"4,16",Discovery Pavillion,,1
3304,First Congregational Church of Santa Barbara,34.431717,-119.716461,2101 State Street,Santa Barbara,CA,93105,805-682-7146,http://www.santabarbarafirst.org,fcc-office-805@santabarbarafirst.org,Dan LaPorte,dandl805@gmail.com,805-314-5326,,3,Sanctuary,,1
3464,Santa Barbara Museum of Natural History,34.4409467,-119.7149357,2559 Puesta Del Sol,Santa Barbara,CA,93105,805-682-4711,http://www.sbnature.org,getconnected@sbnature2.org,Gary Robinson,grobinson@sbnature2.org,805-682-4711 x125,,"4,16",Fleischmann Auditorium,,1
1835,Wood Glen Hall,34.447384,-119.723808,3010 Foothill Road,Santa Barbara,CA,93105,805-687-7771,http://www.woodglenhall.org,,Holly Perkins,holly@woodglenhall.org,805-687-7771,,13,Library,,1
2876,University of California Santa Barbara,34.417339,-119.854103,Mesa Road,Santa Barbara,CA,93106,805-893-3535,https://artsandlectures.sa.ucsb.edu/Tickets/Venues.aspx?VenueID=34,aandl-info@sa.ucsb.edu,Roman Baratiak,roman.baratiak@sa.ucsb.edu,805-893-2078,,"7,16",Campbell Hall,,1
3460,El Montecito Presbyterian Church,34.4365483,-119.634088,1455 East Valley Road,Montecito,CA,93108,805-969-5041,http://www.elmopres.org,anne@elmopres.org,Jeff Bridgeman,jeff@elmopres.org,805-969-5041 x226,,3,Sanctuary,,1
3326,Congregation B'nai B'rith,34.4550178,-119.7842999,1000 San Antonio Creek Road,Santa Barbara,CA,93111,805-964-7869,http://www.cbbsb.org,cantor@cbbsb.org,Mark Childs,cantorchilds@me.com,805-964-7869 x116,,3,"Sanctuary, Social Hall",,1
3595,Cambridge Drive Community Church,34.4485498,-119.8200735,550 Cambridge Drive,Goleta,CA,93117,805 964-0436,http://www.cambridgedrivechurch.org,,Roy Donkin,roy.cdcc@gmail.com,805-964-0436,,3,Sanctuary,,1
2878,Costco Hearing Aid Center,34.427937,-119.873535,7095 Marketplace Drive,Goleta,CA,93117,805-685-2813,http://www.costco.com/hearing-aid-center.html,,Christian Anthis,canthis@costco.com,425-427-3530,,6,Sound Booth,,1
2877,Santa Barbara Airport Administration,34.433784,-119.836182,601 Firestone Road,Goleta,CA,93117,805-967-7111,http://www.santabarbaraca.gov/gov/depts/flysba/about/contact/airportadmin.asp,Airport@SantaBarbaraCA.gov,Tony Ruggieri,truggieri@santabarbaraca.gov,805-564-5311,,14,Conference Room,,1
3366,Lompoc Valley Baptist Church,34.646619,-120.449803,700 East College Avenue,Lompoc,CA,93436,805-735-7807,http://www.lompocvalleybaptist.net,lompocvalleybaptistchurch@gmail.com,,,,,3,Sanctuary,,1
3461,Independent Living Resource Center,34.937694,-120.432353,327 Plaza Drive,Santa Maria,CA,93454,805-925-0015,http://www.ilrc-trico.org,info@ilrc-trico.org,Dani Anderson,danderson@ilrc-trico.org,805-963-0595 x108,,"14,15",Conference Room,,1
1836,Bethania Lutheran Church,34.598923,-120.141563,603 Atterdag Road,Solvang,CA,93463,805-688-4637,http://www.bethanialutheran.net,bethania.lutheran@verizon.net,,,,,3,Sanctuary ,,1
9001,First United Methodist Church,,,305 East Anapamu Street,Santa Barbara,CA,93101,805-963-3579,http://www.fumcsb.org,,James Jorden,jojorden@hotmail.com,805-563-0585,,3,Sanctuary,,1
9002,Maravilla,,,5486 Calle Real,Santa Barbara,CA,93111,805-308-9585,http://www.srgseniorliving.com/assisted_living/Santa_Barbara_CA/zip_93111/senior_resource_group_llc/4148,,Jill Sandrich,jsandrich@srg-llc.com,805-308-9585,,13,"Movie Theater, Club House",,1
9003,Music Academy of the West,,,1070 Fairway Road,Santa Barbara,CA,93108,805-969-8787,http://www.musicacademy.org,boxoffice@musicacademy.org,Ana Papakhian,anap@musicacademy.org,805-695-7909,,7,Hahn Hall,,1
9004,Santa Barbara Museum of Art,,,1130 State Street,Santa Barbara,CA,93101,805-963-4364,http://www.sbmuseart.org,info@sbma.net,Georgia McDermott,gmcdermott@sbma.net,805-963-4364,,"4,16",Mary Craig Auditorium,,1
9005,Trinity Episcopal Church,,,1500 State Street,Santa Barbara,CA,93101,805-965-7419,http://trinitysb.ladiocese.org,office@trinitysb.org,Carren Sheldon,csheldon@trinitysb.org,805-965-7419,,3,Sanctuary,,1
9006,Unitarian Society of Santa Barbara,,,1535 Santa Barbara Street,Santa Barbara,CA,93101,805-965-4583,http://www.ussb.org,info@ussb.org,Nancy van Antwerp,nancyvan@cox.net,805-965-4583,,3,"Sanctuary, Social Hall",,1
9007,Valle Verde,,,900 Calle De Los Amigos,Santa Barbara,CA,93105,805-883-4000,http://www.valleverde.org,,Ron Martin,rmartin@abhow.com,805-883-4039,,13,"Santa Barbara Room, Theater",,1
9008,Vista del Monte,,,3775 Modoc Road,Santa Barbara,CA,93105,805-736-1333,http://www.vistadelmonte.org,,Mike Pointer,mpointer@frontporch.net,805-207-6776,,13,"Main Lounge, Patio Room",,1
9009,Goleta City Hall,,,130 Cremona Drive,Goleta,CA,93117,805-961-7500,http://www.cityofgoleta.org,,Deborah Lopez,dlopez@cityofgoleta.org,805-961-7500,,14,Council Chambers,,1
9010,Carpinteria City Hall,,,5775 Carpinteria Avenue,Carpinteria,CA,93013,805-684-5405,http://www.carpinteria.ca.us,,Arlene Balmadrid,ArleneB@ci.carpinteria.ca.us,805-684-5405 x404,,14,Council Chambers,,1
9011,St. Joseph Catholic Church,,,1532 Linden Avenue,Carpinteria,CA,93013,805-684-2181,http://www.stjosephchurch.org,StJoseph@StJosephChurch.org,Bud Girard,budmansb@cox.net,805-684-7771,,3,Sanctuary,First 5 seat rows,1
9012,OASIS Senior Center,,,420 Soares Avenue,Orcutt,CA,93455,805-937-9750,http://www.oasisorcutt.org,information@oasisorcutt.org,Doug Dougherty,doug@oasisorcutt.org,805-937-9750,,13,,,2
9013,Ojai City Hall,,,"401 South Ventura Street,",Ojai,CA,93023,805-646-5581,http://www.ci.ojai.ca.us,,James Hahn,hahn@ojaicity.org,805-646-5581 x205,,14,Council Chambers,,1
9014,Rubicon Theatre,,,1006 East Main Street,Ventura,CA,93001,805-667-2900,http://www.rubicontheatre.org,boxoffice@rubicontheatre.org,Christina Burck,cburck@rubicontheatre.org,805-667-2912 x280,,7,,,2
9015,Krotona School of Theosophy,,,46 Krotona Street,Ojai,CA,93023,805-646-1139,https://theosophical.org/ts-network/camps-and-schools/krotona-school,schoolinfo@krotonainstitute.org,Maria Parisen,schooldirector@krotonainstitute.org,805-646-1139,,"15,16",Classroom,,1
9016,Casa Dorinda,,,300 Hot Springs Road,Santa Barbara,CA,93108,805-969-8011,http://www.casadorinda.org,contact@casadorinda.org,Alan Blaver,ablaver@casadorinda.org,805-969-8002,,13,Music Room,,1
9017,Donna Faith Audiology,,,,Santa Barbara,CA,,,,,,,,,"6,9",,,2
9018,Hearing Services of Santa Barbara,,,,Santa Barbara,CA,,,,,,,,,"6,9",,,2
9019,Hearing Consultants of California,,,,Goleta,CA,,,,,,,,,"6,9",,,2
9020,Hearing Consultants of California,,,,Lompoc,CA,,,,,,,,,"6,9",,,2
9021,Hearing Aid Systems,,,,Santa Barbara,CA,,,,,,,,,"6,9",,,2
9022,Maxine di Bartolomeo,,,,Santa Barbara,CA,,,,,,,,,"6,9",,,2
9023,Dodero Hearing Center,,,,Santa Barbara,CA,,,,,,,,,"6,9",,,2
9024,De La Vina Hearing Aid Center,,,,Santa Barbara,CA,,,,,,,,,"6,9",,,2
9025,Audiologic Associates of Santa Barbara,,,,Santa Barbara,CA,,,,,,,,,"6,9",,,2
9026,Miracle-Ear Center Santa Barbara,,,,Santa Barbara,CA,,,,,,,,,"6,9",,,2
9027,Miracle-Ear Center Lompoc,,,,Lompoc,CA,,,,,,,,,"6,9",,,2
9028,Costco Hearing Aid Center,,,,Santa Maria,CA,,,,,,,,,"6,9",Sound Booth,,1
9029,Hometown Hearing Aids,,,,Santa Maria,CA,,,,,,,,,"6,9",,,2
9030,Valley Hearing Center,,,,Solvang,CA,,,,,,,,,"6,9",,,2
9031,Miracle-Ear Center Ventura,,,,Ventura,CA,,,,,,,,,"6,9",,,2
9032,AccuQuest Hearing Aids,,,,Ventura,CA,,,,,,,,,"6,9",,,2
9033,AccuQuest Hearing Aids,,,,Thousand Oaks,CA,,,,,,,,,"6,9",,,2
9034,Auditone Hearing Aids,,,,Ventura,CA,,,,,,,,,"6,9",,,2
9035,Auditone Hearing Aids,,,,Westlake Village,CA,,,,,,,,,"6,9",,,2
9036,Excellent Audiology,,,,Ventura,CA,,,,,,,,,"6,9",,,2
9037,Sharp Hearing Care Professional,,,,Oxnard,CA,,,,,,,,,"6,9",,,2
9038,West Coast Hearing & Balance Center,,,,Oxnard,CA,,,,,,,,,"6,9",,,2
9039,West Coast Hearing & Balance Center,,,,Camarillo,CA,,,,,,,,,"6,9",,,2
9040,West Coast Hearing & Balance Center,,,,Simi Valley,CA,,,,,,,,,"6,9",,,2
9041,West Coast Hearing & Balance Center,,,,Thousand Oaks,CA,,,,,,,,,"6,9",,,2
9042,Costco Hearing Aid Center,,,,Oxnard,CA,,,,,,,,,"6,9",Sound Booth,,1
9043,Costco Hearing Aid Center,,,,Simi Valley,CA,,,,,,,,,"6,9",Sound Booth,,1
9044,Costco Hearing Aid Center,,,,Westlake Village,CA,,,,,,,,,"6,9",Sound Booth,,1
9045,Ascent Hearing Center,,,,Simi Valley,CA,,,,,,,,,"6,9",,,2
9046,Decibel Hearing Services,,,,Simi Valley,CA,,,,,,,,,"6,9",,,2
9047,Decibel Hearing Services,,,,Thousand Oaks,CA,,,,,,,,,"6,9",,,2
9048,Acoustic Hearing Aids,,,,Camarillo,CA,,,,,,,,,"6,9",,,2
9049,Harmony Hearing Center,,,,Simi Valley,CA,,,,,,,,,"6,9",,,2
9050,Miracle-Ear Center Westlake Village,,,,Westlake Village,CA,,,,,,,,,"6,9",,,2
9051,Conejo Hearing Center,,,,Westlake Village,CA,,,,,,,,,"6,9",,,2
9052,Second Chance Hearing,,,,Westlake Village,CA,,,,,,,,,"6,9",,,2
,,,,,,,,,,,,,,,,,,
